0	 0
122	 -0.16
192	 -0.16
296	 -0.16
365	 -0.16
435	 -0.16
504	 -0.17
574	 -0.17
643	 -0.17
712	 -0.18
782	 -0.18
851	 -0.19
921	 -0.19
990	 -0.2
1060	 -0.2
1129	 -0.2
1199	 -0.21
1268	 -0.21
1372	 -0.22
1442	 -0.22
1511	 -0.23
1581	 -0.23
1650	 -0.24
1720	 -0.24
1789	 -0.24
1859	 -0.25
1928	 -0.25
1997	 -0.26
2067	 -0.26
2136	 -0.27
2206	 -0.27
2275	 -0.27
2345	 -0.28
2414	 -0.29
2484	 -0.32
2553	 -0.35
2623	 -0.38
2692	 -0.41
2762	 -0.44
2831	 -0.47
2901	 -0.51
2970	 -0.54
3039	 -0.57
3109	 -0.6
3178	 -0.63
3248	 -0.67
3317	 -0.7
3387	 -0.73
3456	 -0.76
3526	 -0.8
3595	 -0.83
3665	 -0.86
3734	 -0.89
3803	 -0.93
3873	 -0.96
3942	 -0.99
4011.9999999999995	 -1.02
4081.0000000000005	 -1.06
4151	 -1.09
4220	 -1.12
4290	 -1.15
4359	 -1.19
4429	 -1.22
4498	 -1.25
4568	 -1.28
4637	 -1.32
4707	 -1.36
4776	 -1.43
4845	 -1.52
4915	 -1.6
4984	 -1.69
5054	 -1.77
5123	 -1.86
5193	 -1.94
5262	 -2.03
5332	 -2.11
5401	 -2.2
5470	 -2.28
5540	 -2.37
5609	 -2.45
5679	 -2.54
5748	 -2.62
5818	 -2.71
5887	 -2.79
5957	 -2.88
6026	 -2.96
6096	 -3.05
6165	 -3.13
6235	 -3.22
6304	 -3.3
6373	 -3.39
6443	 -3.47
6512	 -3.56
6582	 -3.64
6651	 -3.73
6721	 -3.81
6790	 -4.01
6860	 -4.46
6929	 -4.93
6999	 -5.39
7068	 -5.86
7138	 -6.32
7207	 -6.78
7277	 -7.25
7346	 -7.71
7415	 -8.17
7485	 -8.64
7554	 -9.1
7624	 -9.57
7693	 -10.03
7763	 -10.49
7832	 -10.96
7902	 -11.43
7971	 -11.97
8039.999999999999	 -12.57
8109.999999999999	 -13.17
8179	 -13.78
8249	 -14.53
8318	 -15.39
8388	 -16.26
8457	 -17.13
8527	 -17.99
8596	 -18.86
8700	 -20.16
8805	 -21.46
8978	 -24.99
9082	 -26.87
9187	 -28.77
9291	 -30.59
9395	 -32.18
9499	 -33.35
9603	 -34.17
9708	 -35.28
9812	 -36.5
9916	 -37.87
10020	 -39.28
10124	 -40.69
10229	 -42.1
10333	 -43.5
10437	 -44.92
10541	 -46.39
10645	 -48.04
10749	 -49.92
10854	 -51.92
10958	 -54.02
11062	 -56.15
11166	 -58.2
11270	 -59.56
11375	 -60.49
11479	 -61.11
11583	 -61.43
11687	 -61.73
11791	 -62.02
11896	 -62.3
12000	 -62.58
12104	 -62.88
12208	 -63.24
12312	 -63.81
12417	 -64.75
12521	 -65.89
12625	 -67.06
12729	 -68.22
12833	 -69.38
12937	 -70.54
13042	 -71.71
13146	 -72.87
13250	 -74.03
13354	 -75.19
13458	 -76.36
13563	 -77.52
13667	 -78.71
13771	 -80.19
13875	 -82.67
13979	 -86.14
14084	 -89.74
14188	 -93.34
14292	 -96.94
14396	 -100.53
14500	 -103.1
14605	 -102.66
14709	 -101.48
14813	 -100.29
14917	 -99.44
15021	 -99.5
15125	 -100.39
15203	 -101.82
15334	 -103.96
15438	 -106.7
15542	 -109.1
15646	 -111.08
15751	 -112.84
15855	 -114.53
15959	 -116.18
16062.999999999998	 -117.79
16167.000000000002	 -119.3
16271.999999999998	 -120.66
16376.000000000002	 -121.9
16480	 -122.9
16584	 -123.45
16688	 -123.61
16792	 -123.59
16897	 -123.51
17001	 -123.42
17105	 -123.31
17209	 -123.19
17313	 -123.07
17418	 -122.93
17522	 -122.8
17626	 -122.68
17730	 -122.56
17834	 -122.47
17939	 -122.41
18043	 -122.4
18147	 -122.43
18251	 -122.52
18355	 -122.7
18460	 -123.01
18564	 -123.44
18668	 -123.95
18772	 -124.5
18876	 -125.07
18980	 -125.65
19085	 -126.23
19189	 -126.81
19293	 -127.41
19397	 -128.02
19501	 -128.66
19606	 -129.34
19710	 -130.04
19814	 -130.75
19918	 -131.44
20022	 -132.11
20127	 -132.73
20231	 -133.32
20335	 -133.82
20439	 -134.15
20543	 -134.28
20648	 -134.28
20786	 -134.18
20925	 -134.04
21064	 -133.9
21203	 -133.76
21342	 -133.62
21481	 -133.47
21620	 -133.33
21759	 -133.19
21898	 -133.04
22037	 -132.9
22176	 -132.76
22419	 -132.51
22558	 -132.37
22697	 -132.23
22836	 -132.08
22974	 -131.94
