\relax 
\providecommand\hyper@newdestlabel[2]{}
\catcode `:\active 
\catcode `;\active 
\catcode `!\active 
\catcode `?\active 
\providecommand\HyperFirstAtBeginDocument{\AtBeginDocument}
\HyperFirstAtBeginDocument{\ifx\hyper@anchor\@undefined
\global\let\oldcontentsline\contentsline
\gdef\contentsline#1#2#3#4{\oldcontentsline{#1}{#2}{#3}}
\global\let\oldnewlabel\newlabel
\gdef\newlabel#1#2{\newlabelxx{#1}#2}
\gdef\newlabelxx#1#2#3#4#5#6{\oldnewlabel{#1}{{#2}{#3}}}
\AtEndDocument{\ifx\hyper@anchor\@undefined
\let\contentsline\oldcontentsline
\let\newlabel\oldnewlabel
\fi}
\fi}
\global\let\hyper@last\relax 
\gdef\HyperFirstAtBeginDocument#1{#1}
\providecommand\HyField@AuxAddToFields[1]{}
\providecommand\HyField@AuxAddToCoFields[2]{}
\select@language{french}
\@writefile{toc}{\select@language{french}}
\@writefile{lof}{\select@language{french}}
\@writefile{lot}{\select@language{french}}
\citation{Reference2}
\citation{Reference23}
\citation{Reference1}
\citation{Reference3}
\@writefile{toc}{\contentsline {section}{\numberline {1}Introduction}{1}{section.1}}
\newlabel{Introduction}{{1}{1}{Introduction}{section.1}{}}
\@writefile{toc}{\contentsline {section}{\numberline {2}Review on signal transform}{1}{section.2}}
\newlabel{Review}{{2}{1}{Review on signal transform}{section.2}{}}
\@writefile{toc}{\contentsline {subsection}{\numberline {2.1}Reconstruction, sampling function and interpolation}{1}{subsection.2.1}}
\citation{Reference6}
\citation{Reference5}
\citation{Reference8}
\newlabel{sample}{{1}{2}{Reconstruction, sampling function and interpolation}{equation.2.1}{}}
\newlabel{construct}{{2}{2}{Reconstruction, sampling function and interpolation}{equation.2.2}{}}
\@writefile{toc}{\contentsline {subsubsection}{\numberline {2.1.1}Point sampling and Fourier series}{2}{subsubsection.2.1.1}}
\newlabel{Fourier}{{2.1.1}{2}{Point sampling and Fourier series}{subsubsection.2.1.1}{}}
\newlabel{Fourier series}{{3}{2}{Point sampling and Fourier series}{equation.2.3}{}}
\@writefile{toc}{\contentsline {subsubsection}{\numberline {2.1.2}Fourier transform and Filtering}{2}{subsubsection.2.1.2}}
\newlabel{Filtering}{{2.1.2}{2}{Fourier transform and Filtering}{subsubsection.2.1.2}{}}
\citation{Reference5}
\@writefile{toc}{\contentsline {subsubsection}{\numberline {2.1.3}Windowed Fourier transform}{3}{subsubsection.2.1.3}}
\newlabel{localized operator}{{4}{3}{Windowed Fourier transform}{equation.2.4}{}}
\newlabel{transform}{{5}{3}{Windowed Fourier transform}{equation.2.5}{}}
\citation{Reference5}
\citation{Reference8}
\citation{Reference16}
\citation{Reference10}
\citation{Reference14}
\@writefile{toc}{\contentsline {subsubsection}{\numberline {2.1.4}The Uncertainty Principle}{4}{subsubsection.2.1.4}}
\newlabel{uncertainty Fourier}{{6}{4}{The Uncertainty Principle}{equation.2.6}{}}
\@writefile{toc}{\contentsline {subsection}{\numberline {2.2}Function representation using Wavelets}{4}{subsection.2.2}}
\newlabel{wavelet}{{2.2}{4}{Function representation using Wavelets}{subsection.2.2}{}}
\citation{Reference16}
\citation{Reference17}
\citation{Reference13}
\citation{Reference12}
\citation{Reference11}
\@writefile{toc}{\contentsline {subsubsection}{\numberline {2.2.1}Wavelet functions}{6}{subsubsection.2.2.1}}
\newlabel{wavelet function}{{2.2.1}{6}{Wavelet functions}{subsubsection.2.2.1}{}}
\@writefile{lof}{\contentsline {figure}{\numberline {1}{\ignorespaces  Morlet Wavelet}}{6}{figure.1}}
\newlabel{Morlet_fig}{{1}{6}{Morlet Wavelet}{figure.1}{}}
\newlabel{admissible}{{7}{6}{Wavelet functions}{equation.2.7}{}}
\citation{Reference12}
\citation{Reference13}
\@writefile{lof}{\contentsline {figure}{\numberline {2}{\ignorespaces Paul wavelet in time domain}}{7}{figure.2}}
\newlabel{Paul_fig}{{2}{7}{Paul wavelet in time domain}{figure.2}{}}
\@writefile{lof}{\contentsline {figure}{\numberline {3}{\ignorespaces  the corresponding Paul wavelet in frequency domain}}{7}{figure.3}}
\newlabel{Paul_fig1}{{3}{7}{the corresponding Paul wavelet in frequency domain}{figure.3}{}}
\@writefile{toc}{\contentsline {subsubsection}{\numberline {2.2.2}The continuous wavelet transform}{7}{subsubsection.2.2.2}}
\newlabel{CWT section}{{2.2.2}{7}{The continuous wavelet transform}{subsubsection.2.2.2}{}}
\newlabel{CWT}{{8}{7}{The continuous wavelet transform}{equation.2.8}{}}
\newlabel{basis}{{9}{7}{The continuous wavelet transform}{equation.2.9}{}}
\citation{Reference14}
\citation{Reference20}
\newlabel{CWT0}{{10}{8}{The continuous wavelet transform}{equation.2.10}{}}
\newlabel{power spectrum}{{11}{8}{The continuous wavelet transform}{equation.2.11}{}}
\@writefile{toc}{\contentsline {subsubsection}{\numberline {2.2.3}Inversion of continuous wavelet transform}{8}{subsubsection.2.2.3}}
\newlabel{Reconstructed}{{12}{8}{Inversion of continuous wavelet transform}{equation.2.12}{}}
\@writefile{toc}{\contentsline {subsubsection}{\numberline {2.2.4}From continuous wavelet transform to discrete wavelet transform}{8}{subsubsection.2.2.4}}
\citation{Reference10}
\citation{Reference11}
\citation{Reference13}
\newlabel{global wavelet power spectrum}{{13}{9}{From continuous wavelet transform to discrete wavelet transform}{equation.2.13}{}}
\@writefile{toc}{\contentsline {subsubsection}{\numberline {2.2.5}Cross-wavelet transform and wavelet coherence}{9}{subsubsection.2.2.5}}
\newlabel{wavelet coherence smoothing}{{2.2.5}{9}{Cross-wavelet transform and wavelet coherence}{subsubsection.2.2.5}{}}
\newlabel{cross wavelet}{{14}{9}{Cross-wavelet transform and wavelet coherence}{equation.2.14}{}}
\newlabel{cross wavelet power spectrum}{{15}{9}{Cross-wavelet transform and wavelet coherence}{equation.2.15}{}}
\newlabel{wavelet coherence}{{16}{9}{Cross-wavelet transform and wavelet coherence}{equation.2.16}{}}
\@writefile{toc}{\contentsline {subsubsection}{\numberline {2.2.6}The Uncertainty Principle}{10}{subsubsection.2.2.6}}
\@writefile{lof}{\contentsline {figure}{\numberline {4}{\ignorespaces  Window of resolution in plane of uncertainty found in \href  {https://georgemdallas.wordpress.com/}{George Dallas}}}{10}{figure.4}}
\newlabel{resolution}{{4}{10}{Window of resolution in plane of uncertainty found in \href {https://georgemdallas.wordpress.com/}{George Dallas}}{figure.4}{}}
\newlabel{Heisenberg window}{{17}{10}{The Uncertainty Principle}{equation.2.17}{}}
\citation{Reference17}
\citation{Reference18}
\citation{Reference19}
\citation{Reference4}
\citation{Reference17}
\@writefile{toc}{\contentsline {subsubsection}{\numberline {2.2.7}Wavelet significance levels}{11}{subsubsection.2.2.7}}
\newlabel{autoregressive}{{2.2.7}{11}{Wavelet significance levels}{subsubsection.2.2.7}{}}
\newlabel{chi2}{{18}{11}{Wavelet significance levels}{equation.2.18}{}}
\citation{Reference28}
\citation{Reference27}
\citation{Reference21}
\newlabel{significance}{{19}{12}{Wavelet significance levels}{equation.2.19}{}}
\@writefile{toc}{\contentsline {section}{\numberline {3}CO2 and temperature time series from wavelet transform perceptive}{12}{section.3}}
\newlabel{chapter3}{{3}{12}{CO2 and temperature time series from wavelet transform perceptive}{section.3}{}}
\@writefile{lof}{\contentsline {figure}{\numberline {5}{\ignorespaces During the experimental studies, the temperatures curves showed the same trend as those of greenhouse gas measured in the air bubbles (ie. $\mathrm  {CH}_4,\mathrm  {CO}_2$)}}{12}{figure.5}}
\newlabel{all_series}{{5}{12}{During the experimental studies, the temperatures curves showed the same trend as those of greenhouse gas measured in the air bubbles (ie. $\mathrm {CH}_4,\mathrm {CO}_2$)}{figure.5}{}}
\@writefile{lof}{\contentsline {figure}{\numberline {6}{\ignorespaces  CO2 and Antarctic temperature(ATS) relationship during the last de-glacial warming}}{12}{figure.6}}
\newlabel{common}{{6}{12}{CO2 and Antarctic temperature(ATS) relationship during the last de-glacial warming}{figure.6}{}}
\citation{Reference4}
\citation{Reference10}
\citation{Reference11}
\citation{Reference12}
\@writefile{toc}{\contentsline {subsection}{\numberline {3.1}Data processing steps}{13}{subsection.3.1}}
\newlabel{data processing}{{3.1}{13}{Data processing steps}{subsection.3.1}{}}
\@writefile{toc}{\contentsline {subsection}{\numberline {3.2}Wavelet data analysis}{13}{subsection.3.2}}
\@writefile{toc}{\contentsline {subsubsection}{\numberline {3.2.1}Morlet wavelet power spectrum in time and frequency domain}{13}{subsubsection.3.2.1}}
\newlabel{Morlet}{{3.2.1}{13}{Morlet wavelet power spectrum in time and frequency domain}{subsubsection.3.2.1}{}}
\newlabel{data transform}{{20}{14}{Morlet wavelet power spectrum in time and frequency domain}{equation.3.20}{}}
\@writefile{lof}{\contentsline {figure}{\numberline {7}{\ignorespaces  Cross wavelet and wavelet coherence power spectrum}}{15}{figure.7}}
\newlabel{Both1}{{7}{15}{Cross wavelet and wavelet coherence power spectrum}{figure.7}{}}
\@writefile{toc}{\contentsline {subsubsection}{\numberline {3.2.2}Paul wavelet power in time and frequency domain}{15}{subsubsection.3.2.2}}
\newlabel{Paul}{{3.2.2}{15}{Paul wavelet power in time and frequency domain}{subsubsection.3.2.2}{}}
\@writefile{lof}{\contentsline {figure}{\numberline {8}{\ignorespaces  Cross wavelet and wavelet coherence power spectrum}}{15}{figure.8}}
\newlabel{Both2}{{8}{15}{Cross wavelet and wavelet coherence power spectrum}{figure.8}{}}
\citation{Reference26}
\citation{Reference3}
\citation{Reference26}
\@writefile{toc}{\contentsline {subsection}{\numberline {3.3}Phasing analysis}{16}{subsection.3.3}}
\@writefile{toc}{\contentsline {subsubsection}{\numberline {3.3.1}Phasing analysis with existing method}{16}{subsubsection.3.3.1}}
\newlabel{phase angle}{{21}{16}{Phasing analysis with existing method}{equation.3.21}{}}
\newlabel{SDVMCA}{{23}{16}{Phasing analysis with existing method}{equation.3.23}{}}
\@writefile{toc}{\contentsline {subsubsection}{\numberline {3.3.2}Contribution on the time delay analysis}{16}{subsubsection.3.3.2}}
\newlabel{Contribution phase}{{3.3.2}{16}{Contribution on the time delay analysis}{subsubsection.3.3.2}{}}
\newlabel{time delay}{{24}{16}{Contribution on the time delay analysis}{equation.3.24}{}}
\newlabel{one_time_methods}{{25}{16}{Contribution on the time delay analysis}{equation.3.25}{}}
\citation{Reference25}
\newlabel{weighhted}{{26}{17}{Contribution on the time delay analysis}{equation.3.26}{}}
\newlabel{estimated}{{27}{17}{Contribution on the time delay analysis}{equation.3.27}{}}
\@writefile{lof}{\contentsline {figure}{\numberline {9}{\ignorespaces  The instantaneous time delay corresponding to the Morlet wavelet transform(top) and Paul wavelet transform(bottom)}}{17}{figure.9}}
\newlabel{accuMorlet}{{9}{17}{The instantaneous time delay corresponding to the Morlet wavelet transform(top) and Paul wavelet transform(bottom)}{figure.9}{}}
\@writefile{toc}{\contentsline {subsubsection}{\numberline {3.3.3}Discussing the results}{17}{subsubsection.3.3.3}}
\citation{Reference22}
\citation{Reference13}
\citation{Reference3}
\bibstyle{plain}
\bibdata{stage}
\@writefile{toc}{\contentsline {section}{\numberline {4}Conclusion}{18}{section.4}}
\bibcite{Reference22}{1}
\bibcite{Reference13}{2}
\bibcite{Reference10}{3}
\bibcite{Reference14}{4}
\bibcite{Reference25}{5}
\bibcite{Reference28}{6}
\bibcite{Reference18}{7}
\bibcite{Reference2}{8}
\bibcite{Reference5}{9}
\bibcite{Reference3}{10}
\bibcite{Reference8}{11}
\bibcite{Reference12}{12}
\bibcite{Reference11}{13}
\bibcite{Reference19}{14}
\bibcite{Reference21}{15}
\bibcite{Reference1}{16}
\bibcite{Reference16}{17}
\bibcite{Reference27}{18}
\bibcite{Reference20}{19}
\bibcite{Reference17}{20}
\bibcite{Reference4}{21}
\bibcite{Reference23}{22}
\bibcite{Reference6}{23}
\bibcite{Reference26}{24}
\@writefile{toc}{\contentsline {section}{\numberline {5}Appendix A}{20}{section.5}}
\@writefile{toc}{\contentsline {subsection}{\numberline {5.1}Data pre-processing: de-trending time series}{20}{subsection.5.1}}
\@writefile{lof}{\contentsline {figure}{\numberline {10}{\ignorespaces the mean trend between ATS and CO2 time series look the same as the trends of both series}}{20}{figure.10}}
\newlabel{detrending1}{{10}{20}{the mean trend between ATS and CO2 time series look the same as the trends of both series}{figure.10}{}}
\@writefile{lof}{\contentsline {figure}{\numberline {11}{\ignorespaces the mean trend between NGRIP and CO2 time series look different in comparison with trends of both series}}{20}{figure.11}}
\newlabel{detrending2}{{11}{20}{the mean trend between NGRIP and CO2 time series look different in comparison with trends of both series}{figure.11}{}}
\@writefile{toc}{\contentsline {subsection}{\numberline {5.2}Discrete computations: Reconstructed data from wavelet transfrom}{20}{subsection.5.2}}
\@writefile{lof}{\contentsline {figure}{\numberline {12}{\ignorespaces The variabilities of the two series after de-trending}}{21}{figure.12}}
\newlabel{smoothing data}{{12}{21}{The variabilities of the two series after de-trending}{figure.12}{}}
\@writefile{lof}{\contentsline {figure}{\numberline {13}{\ignorespaces  $\mathrm  {CO_2}$ and ATS reconstructed}}{21}{figure.13}}
\newlabel{reconstruced}{{13}{21}{$\mathrm {CO_2}$ and ATS reconstructed}{figure.13}{}}
\@writefile{toc}{\contentsline {subsection}{\numberline {5.3}Mean circular time delay representation}{21}{subsection.5.3}}
\@writefile{toc}{\contentsline {section}{\numberline {6}Toolbox}{21}{section.6}}
\@writefile{lof}{\contentsline {figure}{\numberline {14}{\ignorespaces  The mean circular time delay with its upper bound and lower bound according to Morlet wavelet transform(top) and that of Paul(bottom) provide a good representation with statistical confidence interval. }}{22}{figure.14}}
\newlabel{comparaison methods}{{14}{22}{The mean circular time delay with its upper bound and lower bound according to Morlet wavelet transform(top) and that of Paul(bottom) provide a good representation with statistical confidence interval}{figure.14}{}}
